…
Notice that the `tibble` version of `my_df` outputs to the screen additional information than the standard `data.frame`. We can see the data type associated with each variable, and we are explicitely told the dimensions of the object.

This change in printed display is especially useful when first exploring a large dataset. If you print a "base" `R` `data.frame` to the screen, all rows and columns are displayed (up to the display limit). With dozens and dozens of columns and thousands of rows, such an action is overkill and a little pointless. Sometimes I just want to "see" the first few rows of a dataset. `tibble`s correct this by displaying just the first 10 rows by default, and display only enough variables that easily fit to the screen. Such a difference is purely cosmetic, but I like it none the less.

To showcase this functionality, print to screen the `iris` dataset after piping it into the `tbl_df()` function.

``` r
iris %>% tbl_df()
```

    ## # A tibble: 150 x 5
    ##    Sepal.Length Sepal.Width Petal.Length Petal.Width Species
    ##           <dbl>       <dbl>        <dbl>       <dbl> <fct>  
    ##  1          5.1         3.5          1.4         0.2 setosa 
    ##  2          4.9         3            1.4         0.2 setosa 
    ##  3          4.7         3.2          1.3         0.2 setosa 
    ##  4          4.6         3.1          1.5         0.2 setosa 
    ##  5          5           3.6          1.4         0.2 setosa 
    ##  6          5.4         3.9          1.7         0.4 setosa 
    ##  7          4.6         3.4          1.4         0.3 setosa 
    ##  8          5           3.4          1.5         0.2 setosa 
    ##  9          4.4         2.9          1.4         0.2 setosa 
    ## 10          4.9         3.1          1.5         0.1 setosa 
    ## # ... with 140 more rows
…
