…
``` r
train_df %>% 
  mutate(intercept = 1,
         x_squared = x^2) %>% 
  select(intercept, x, x_squared)
```

    ## # A tibble: 30 x 3
    ##    intercept      x x_squared
    ##        <dbl>  <dbl>     <dbl>
    ##  1         1  1.19     1.41  
    ##  2         1  0.749    0.561 
    ##  3         1  0.482    0.232 
    ##  4         1 -0.636    0.404 
    ##  5         1 -0.110    0.0120
    ##  6         1 -0.843    0.711 
    ##  7         1  0.295    0.0871
    ##  8         1 -0.326    0.106 
    ##  9         1 -1.98     3.91  
    ## 10         1 -0.888    0.789 
    ## # ... with 20 more rows
…
